a787e8e868e0962815f613634aaa7623
106f9be0e66f52f36eaaaff4dd231971
75939c4ce23c53ad9534d43be176b3e9
946dbe0d5ed7fee91c8ece64d035e70b
4df96d3bc9afd17b812e65e6c6add1ef
eb3214f29c0a52815b41977d6cc9a46e
c6d9bef7a806da63cdd9df7ec9e862d7
becf75b2cc99e82716da2e6697879509
7eec7b9476b99b3ce94533da4f2eb987
974322f19d813702ea048d95288d2b8c
07bd8bdb99df5be8fb7d7c803ab0407f
f722eb62028a83e400c6c9faefc11f75
4da578532cf0b91cb95142d4ea36afe0
3d6534be3e6e44adb7d029079fa13262
5320e6915ea65c264b5682649c3ca647
29015bbfcc182d80e7f75bd2c38e4521
ff22dbf67af979b8b3169a242d10f166
775ac8aad67fc72418bfde3d3b456f84
86a0d598cde251321e21a0da4ab94065
74616804a7dc29147dfb0afe122a9fd2
452cecec3e7d8b26a15fb7c1b2cbaecb
8b98df86717fae71144318c9ea3a651f
35695de726f6044576c830bf197f36f7

